................
----------------------------------------------------------------------
Ran 16 tests in 0.023s

OK
Name             Stmts   Miss Branch BrPart  Cover   Missing
------------------------------------------------------------
Collatz.py          29      0      8      0   100%
TestCollatz.py      68      0      0      0   100%
------------------------------------------------------------
TOTAL               97      0      8      0   100%
