..........
----------------------------------------------------------------------
Ran 10 tests in 0.134s

OK
Name             Stmts   Miss Branch BrPart  Cover   Missing
------------------------------------------------------------
Collatz.py          43      0     14      0   100%
TestCollatz.py      46      0      0      0   100%
------------------------------------------------------------
TOTAL               89      0     14      0   100%
